0.08680855702902901,0.9748637377187463,0
0.0169086527899861,0.4504414024603324,0
0.4050033794244402,0.7269985718645414,0
0.19778173117152764,0.8749621998023267,0
0.4940784000375362,0.5917386716163707,0
0.5558154099669482,0.9991358695714213,0
0.2986366382139466,0.5383800438558289,0
0.12317896233656422,0.8405302962831513,0
0.2559235161489457,0.5959485376176321,0
0.3483004240528784,0.5872950945183667,0
0.22706506741779953,0.719055100120116,0
0.1257935381120635,0.9466079745365823,0
0.19143062982216996,0.5561028430551778,0
0.3666086031599268,0.6625983020079956,0
0.06374774762034885,0.698185286451062,0
0.4399624287133548,0.9178867378971881,0
0.42180342346924227,0.9836630938345213,0
0.3073519652465506,0.597632474255224,0
0.06694057891313221,0.7378105719717253,0
0.5445936300673403,0.8461383828822746,0
0.08302023271641135,0.5439701050059558,0
0.4293795736781595,0.9740596227613798,0
0.033944918100620836,0.735050559468047,0
0.06526301244019184,0.8331877378137977,0
0.10420965682246819,0.5711813182679759,0
0.35044318115825135,0.49471437465275725,0
0.41950498827114524,0.6913482792619128,0
0.2300928858054303,0.5685725375257931,0
0.015366137114369516,0.6289767188687041,0
0.2830841603492933,0.6680992832739162,0
0.03910135147899729,0.6262387448847822,0
0.1685447526237701,0.7169936521941649,0
0.30623835346998474,0.7321070239638431,0
0.0025376373934274943,0.5626646660261053,0
0.3380057354650874,0.8348317440623753,0
0.5017201505026359,0.6264719316366963,0
0.2675728335426596,0.9879270151444292,0
0.31899654362611707,0.7617098241355323,0
0.25710478201723364,0.8456085470189854,0
0.13329205935083377,0.7867339143327615,0
0.25136003081869884,0.6872943415483136,0
0.31767412790647376,0.5110126191010959,0
0.14686418957035408,0.7552856730498433,0
0.16919470740463327,0.4966151828351535,0
0.5131385644595386,0.8308393559781005,0
0.297386526298415,0.7276302299421307,0
0.15044104290647597,0.9660192072531835,0
0.028052789375313303,0.9165223485329984,0
0.17891329082457863,0.6010568472460311,0
0.45195797481725286,0.7713926697186727,0
0.3001447862349479,0.5379656102292906,0
0.20184446133015232,0.9405281687870529,0
0.1570520306324521,0.5511683232658342,0
0.14374943269314444,0.6246591027599135,0
0.24916649758774778,0.5608586236425579,0
0.26687852626165787,0.8284879562368845,0
0.43866125832158664,0.6227412601895811,0
0.47920677490024166,0.942468839893095,0
0.36833638522709644,0.8990625121952425,0
0.25532111001085867,0.5984076278736749,0
0.41092821647008215,0.7098526603649113,0
0.022124706427630092,0.9971525492663018,0
0.03955080655714327,0.6336093551701102,0
0.055351727562064745,0.9310895529135689,0
0.2344323868221685,0.7514825430726122,0
0.13737675400138927,0.5177321597560592,0
0.40155576800337645,0.9201034395478486,0
0.29324645376550906,0.5319103812686197,0
0.27665583462184107,0.5818010273231855,0
0.14834452686373323,0.604657187202333,0
0.514823020596071,0.6973487428474806,0
0.2266282439237436,0.83486174320348,0
0.2749441443014836,0.6128033574735396,0
0.1477549143143685,0.5897027156211653,0
0.0792195012541076,0.5670365645906035,0
0.2665673182666942,0.8208955887875985,0
0.05696380583278027,0.9146300850043678,0
0.13950716030917076,0.6580047431574392,0
0.570014907907031,0.22037450696296645,1
0.2813766186116532,0.18690840507866224,1
0.293589373047928,0.15764279448587593,1
0.48415374464840555,0.277975206205466,1
0.477066518772407,0.32603852075909523,1
0.45723471609755295,0.17339385997816426,1
0.38258488201484664,0.34034578178844266,1
0.19235449066402766,0.10041247533608988,1
0.3618572448500522,0.2717664301259598,1
0.4913869145410391,0.22798342614047695,1
0.31061555305638455,0.0296263406061279,1
0.4278284271887056,0.019588056658939812,1
0.04015884647110901,0.024051210576107596,1
0.37398528030169975,0.17560483130564053,1
0.18737162126786944,0.2347242947113628,1
0.2807107407667485,0.08067860856513476,1
0.0944372070299766,0.39938512110393365,1
0.375986081895178,0.024197742432447766,1
0.4066696649368159,0.1443807268208629,1
0.02490700371486476,0.2752872558638755,1
0.3509271342279333,0.124858285697511,1
0.2413434654740182,0.3339813233417922,1
0.2354450775982727,0.05604176843545394,1
0.391584508656625,0.19947145616232187,1
0.6203890677633457,0.29402980552558566,1
0.10538731995288719,0.3610726670628692,1
0.04490321218410642,0.33157685176566243,1
0.1657119273829467,0.12244255194965792,1
0.7560422081125778,0.04526101145713779,1
0.29703544721115815,0.12939372329116838,1
0.125292199194579,0.15972356182429115,1
0.25370573171794997,0.41837998649837915,1
0.5356673275799073,0.37335993807460754,1
0.45081673674534795,0.42034763308485434,1
0.6664988345515801,0.19512618882300592,1
0.06687818794821954,0.009740120258223794,1
0.18651841175384576,0.3549180244205765,1
0.07285609585606412,0.07532227868842012,1
0.4334628782588441,0.2937617095291233,1
0.7207807960004049,0.13029732307176933,1
0.11536889735819167,0.11213437108221747,1
0.3050053626901429,0.05923213857454901,1
0.26032228968274096,0.15527687982594485,1
0.4641471692257746,0.42582593790244294,1
0.3591603537859551,0.4096362614707847,1
0.23677534803513456,0.28436632051518607,1
0.375837537638277,0.2314572757122867,1
0.6443299895516827,0.06092663516315644,1
0.23759594499759873,0.22300858846139826,1
0.34198158084940977,0.19231259996481043,1
0.5619034127589528,0.321845469516019,1
0.6751686272241904,0.08453789885086838,1
0.5249699119707175,0.18066508904566014,1
0.20731874783646687,0.2701411291446597,1
0.25810194109887485,0.12270937613974175,1
0.36733963981519524,0.12494889385976538,1
0.43166267307395745,0.06092086509999395,1
0.6189783815590162,0.2703989159827632,1
0.09822738488302707,0.005810538948778143,1
0.2303187709090454,0.29734475362685964,1
0.013386442175639335,0.18125406657447207,1
0.7643698895174232,0.17315148151016424,1
0.1828686574995243,0.323345828930206,1
0.4208614628306697,0.39449513387687973,1
0.0047132473547919496,0.024232560471218134,1
0.26156248216887557,0.3202635422457132,1
0.0010939126776768893,0.263746231479545,1
0.5072533336360163,0.11988573785258527,1
0.42340024022816136,0.22936324536187658,1
0.3149403478504369,0.037806457838105656,1
0.21915470810994453,0.15079537368127494,1
0.2830872131194354,0.1538944678641243,1
0.002906568227553419,0.12361441553714736,1
0.3369518537821383,0.10811402946911453,1
0.5173717665158666,0.1888460744430126,1
0.25634720384520726,0.06327340220658717,1
0.017872021709580355,0.3429040426451986,1
0.12070132160012581,0.17656867644516516,1
0.3872188532148789,0.26725927244500824,1
0.11834916982005717,0.39354885400760176,1
0.5102369386724405,0.03135370419357897,1
0.6461951096946073,0.011561905315832899,1
0.3684575276772525,0.031437501664437706,1
0.5387840308043802,0.1473788590999935,1
0.07602772065987795,0.22483979283460354,1
0.029806053338449434,0.31692806319328215,1
0.6288582763067697,0.2098557276294899,1
0.7942598616794997,0.03574742070014236,1
0.34415466091160374,0.3426585384715499,1
0.7095591166761102,0.10316179664552061,1
0.5581306588516692,0.2656298891283343,1
0.1004669632895212,0.17613535788419854,1
0.8161731465215928,0.07158794899255039,1
0.6077211605253537,0.24940722321096065,1
0.341219638398901,0.2132207132863937,1
0.08259380532458727,0.11127260498156455,1
0.7037724818052126,0.1992928181053164,1
0.396161591919861,0.3399196158824943,1
0.9031030713567985,0.6474633800378561,2
0.5840134250650395,0.5659183495728282,2
0.892276768403022,0.17069878199450395,2
0.662071162813517,0.7960811019195335,2
0.5751051769679603,0.7318931856496491,2
0.860519548111831,0.5308508656758639,2
0.8266460154001452,0.48991924331897063,2
0.5640834635116603,0.6675123797972603,2
0.6666288405854734,0.3483283770562994,2
0.9242676549912974,0.9460223275497707,2
0.9464434502231714,0.6343385573812905,2
0.6006967517373166,0.6967962758405588,2
0.8989790462607196,0.9472560974460408,2
0.7730442043637392,0.9784241689691634,2
0.9513147774915903,0.41511954199361667,2
0.9568135058839635,0.340417834949442,2
0.8932757704980689,0.6509857191402387,2
0.48318545433896976,0.4913322108456951,2
0.5306394914548989,0.5683391128845603,2
0.7140938663579092,0.9718795312660834,2
0.6016238573804371,0.7759960876206168,2
0.9191593736067888,0.6175882223096978,2
0.7415782921459801,0.6834936177160927,2
0.969244187810935,0.538767625183486,2
0.5292033877829466,0.648993482240364,2
0.6218880012596184,0.7948799295699349,2
0.7418600885345519,0.6437187264151194,2
0.51075117148377,0.5369789646064336,2
0.8430101855998946,0.8735403678357871,2
0.6140323869549809,0.970815800376556,2
0.8412034046964246,0.8598420545415058,2
0.8427309431138753,0.320491796451849,2
0.9476126247628317,0.9948405757746911,2
0.8724019225684435,0.33585928607599214,2
0.9452451756685809,0.38722545484741966,2
0.9704799243651424,0.4331048626457372,2
0.7496560277232492,0.7062989401714809,2
0.6319601331901163,0.7706084867061774,2
0.5921534955002218,0.41403236987474623,2
0.8357251650853,0.7093514853339331,2
0.8675241987402583,0.7617676351859628,2
0.6132512510557732,0.6487102816231811,2
0.9571153428938247,0.72732175537015,2
0.9922432616972112,0.5707012694481282,2
0.6490751818905139,0.6607331909522965,2
0.8899396425307693,0.7799773053133389,2
0.8495035877893716,0.6819050934833331,2
0.6101995628641785,0.8821697903626486,2
0.7979113068076521,0.9099797475662005,2
0.742285953270591,0.7113768455665807,2
0.9981475926304982,0.7608243504025882,2
0.9835790744013043,0.9135613989403244,2
0.7650288510414366,0.6418406601443012,2
0.6041556301048255,0.83114995552232,2
0.7657831727458141,0.285075542260824,2
0.8496489335980659,0.7221573542387846,2
0.9456800073808137,0.6330307896885388,2
0.8980893479612649,0.4220514326586089,2
0.9819335791413123,0.4679678876718145,2
0.8332183860774626,0.38635556776578717,2
0.6674755508036954,0.7556970784214568,2
0.600580356130606,0.37185131134454463,2
0.7321577027337743,0.8030374230743553,2
0.5744179926279493,0.7558547309187607,2
0.9667648381148618,0.670620655437176,2
0.7704376601935446,0.6757701485742967,2
0.6063601659996851,0.41966634941747116,2
0.6967601833814296,0.4022962345561141,2
0.9889092099867673,0.23365144876096944,2
0.8072251929448233,0.7999618057672347,2
0.909418117346973,0.9335729488781604,2
0.9608107808904935,0.07126638035482424,2
0.543828232343473,0.4993863822679909,2
0.6034121949281476,0.8610927474916799,2
0.9104502856038807,0.6505238819810347,2
0.8191737464335218,0.9360181302544488,2
0.677970342656363,0.37423456911535413,2
0.9804576990546725,0.46824247644849326,2
0.546304799509902,0.5108119551092721,2
0.615695954344074,0.6292693924494538,2
0.5341460903563545,0.5621805184074792,2
0.8384989964109362,0.7933934264003805,2
0.9879073088165005,0.747267839598522,2
0.9899932507683902,0.6537857026133932,2
0.8277178823613354,0.265574757516746,2
0.9830996024172477,0.5234476335970992,2
0.665142002392323,0.4254588105889855,2
0.6319460012130097,0.809895895914388,2
0.9809945426792692,0.09637051294740218,2
0.5622305462387681,0.746241170278293,2
0.9517600617082353,0.6571886462684989,2
0.8604630840949463,0.32688757027733106,2
0.7733149493426019,0.5365063228999506,2
0.8178684448981915,0.33286870719411754,2
0.8697217102542307,0.8959863587718946,2
0.544838665752092,0.4932507363228579,2
0.7497393048624648,0.7222034284246935,2
0.5774129406535993,0.6664207269267879,2
0.758764477433258,0.38676928615841843,2
0.8953745235011226,0.7954354943282086,2
0.6630931509985662,0.5249593737905538,2
0.9841981420730914,0.7592592220405687,2
0.8191118840484991,0.6065572951028608,2
0.5396464078482636,0.7531342699835978,2
0.7961797206354243,0.6847312081176496,2
0.9020162899844032,0.23360627916085108,2
0.779532396613178,0.7622777440605549,2
0.5029374094686178,0.5730114069467095,2
0.7596074630960662,0.5405284628130552,2
0.9575065093109042,0.04987169375388878,2
0.8995292704205691,0.1236844332882141,2
0.9801778699076784,0.8286648314945696,2
0.5907847485611736,0.6773071212292557,2
0.916098258829123,0.46695885648685154,2
0.7595091689521503,0.5741646216854825,2
0.6464486781902745,0.5010276683963782,2
0.8858198716777054,0.6917071999809437,2
0.6908923809776427,0.6538443478489699,2
0.6270364924084584,0.41228312430892466,2
0.9763073314085657,0.8616577563397901,2
0.5303203907935173,0.6051134118030012,2
0.7845009797582037,0.7551224539984949,2
0.9645018739014543,0.053931519418011664,2
0.5852884254901936,0.8511430737113107,2
