0.619864030607,0.0327223748561,0
0.70363574259,0.00700612028267,0
0.58995446379,0.226206548034,0
0.0274027667251,0.16411301151,0
0.555797887678,0.0538685506724,0
0.422328597162,0.22188397268,0
0.412501741509,0.31750991093,0
0.150858349414,0.0229727466032,0
0.80256047656,0.463208326345,0
0.374256729356,0.276322836562,0
0.811924765251,0.323525906628,0
0.413450517844,0.351295360818,0
0.432664069542,0.199909961821,0
0.322976814071,0.444200282493,0
0.547021181145,0.267730540935,0
0.0295121866357,0.187786842862,0
0.178131751539,0.428027163316,0
0.124855219339,0.155582978045,0
0.030111316502,0.356506793459,0
0.766761345169,0.441553380508,0
0.162177840339,0.0696029368322,0
0.788831245901,0.481129409959,0
0.918293400151,0.275317041958,0
0.252122260466,0.331863706731,0
0.657231797165,0.466959696802,0
0.939870321623,0.118408918668,0
0.388195613403,0.160567196555,0
0.602987335191,0.0643437991477,0
0.40215033467,0.433138649184,0
0.990928564667,0.0821573304726,0
0.521815976101,0.436736505622,0
0.904535423712,0.125665083556,0
0.118227137125,0.0237982636835,0
0.522073410495,0.241405746175,0
0.689502034475,0.212942231389,0
0.57658583977,0.384415964808,0
0.516511137456,0.159986787812,0
0.243254088695,0.114672932189,0
0.826167322055,0.503124793776,0
0.672341111486,0.353882809696,0
0.990283826632,0.130862835329,0
0.806354056509,0.185224895772,0
0.130863059744,0.18728075878,0
0.310115806814,0.435879039256,0
0.530386967929,0.0738333335786,0
0.962154988883,0.0561898748775,0
0.532129396189,0.354747355872,0
0.897783851807,0.171828185671,0
0.765245971092,0.481824135157,0
0.701291264429,0.300333722245,0
0.649958390533,0.0846604920338,0
0.884966959322,0.103820757624,0
0.872335574505,0.19775223336,0
0.887140673948,0.168750605005,0
0.293549248003,0.236367060411,0
0.848673903447,0.374174514316,0
0.926912056156,0.0918888722206,0
0.358195754618,0.280137861135,0
0.883153260932,0.49500176682,0
0.135221762772,0.206988548321,0
0.312984836433,0.142723484496,0
0.110507417594,0.0421969260024,0
0.213565868273,0.194585703597,0
0.227211321848,0.0969865497094,0
0.393259376926,0.406331452593,0
0.308077996565,0.310409872256,0
0.522751124753,0.283342161003,0
0.606273059626,0.0857477999355,0
0.213352375608,0.300598016937,0
0.335877015893,0.0276515384968,0
0.787579560326,0.207762876032,0
0.963633661538,0.45027871732,0
0.354577968427,0.286334395913,0
0.938706725515,0.158505286725,0
0.804587581585,0.0108016973105,0
0.479884483028,0.371967759364,0
0.182445159688,0.425026507321,0
0.278385615836,0.069529920657,0
0.282325085378,0.148472634005,0
0.154104336798,0.186285064193,0
0.247907532487,0.162983413455,0
0.54285553905,0.0163126284787,0
0.0658667060669,0.270687415829,0
0.760558068387,0.139743677097,0
0.480075540126,0.261288433178,0
0.713076440315,0.0800919197638,0
0.119744227563,0.00794957222173,0
0.59919115985,0.243993679919,0
0.152353701102,0.323748770168,0
0.939720904099,0.509183643641,0
0.430169103777,0.0142059582608,0
0.199654064187,0.121995508016,0
0.662744619685,0.0606585580733,0
0.883965877591,0.2190766292,0
0.153853981204,0.092837893197,0
0.333355129362,0.179998138117,0
0.677349241194,0.0801344139444,0
0.250384668677,0.130908451046,0
0.891649521856,0.0368334341718,0
0.783402085305,0.0879975638717,0
0.326457942057,0.255599915396,0
0.117132967755,0.316982659297,0
0.619238149948,0.470411118723,0
0.234461779879,0.121762194847,0
0.612475521085,0.237731897807,0
0.656695834069,0.479627917479,0
0.466031317721,0.0542095436331,0
0.987906021242,0.4436488552,0
0.0403275816249,0.18198454859,0
0.266065133844,0.404251279212,0
0.281633685803,0.0660089465314,0
0.378227175064,0.115820402944,0
0.647212502723,0.155425020162,0
0.654218404517,0.412787285786,0
0.152613466776,0.183124692546,0
0.672248521585,0.21995272714,0
0.386441197754,0.00536721395941,0
0.473047862594,0.093427373678,0
0.70431455863,0.0858894237871,0
0.205938181345,0.310602768124,0
0.783443023644,0.143603377647,0
0.0626915009714,0.241375834796,0
0.894448655217,0.182608997332,0
0.626623472218,0.366573508841,0
0.97226597931,0.453881436646,0
0.917260730868,0.127359964,0
0.990417585682,0.364851541652,0
0.916047263962,0.191141374991,0
0.657171233516,0.364821383379,0
0.180571963023,0.11209638304,0
0.627895322933,0.143414941061,0
0.780165893907,0.27491620633,0
0.133103826685,0.13165144843,0
0.501233543326,0.0583352150051,0
0.379888788616,0.717536805237,1
0.650661062823,0.985627561034,1
0.943341343102,0.582055140627,1
0.0974999593165,0.586365509307,1
0.793710887831,0.956214019081,1
0.366406624268,0.461382926868,1
0.548990419129,0.794936353296,1
0.571997477677,0.61047124503,1
0.260129182878,0.55815453814,1
0.01260153469,0.904618051389,1
0.81353353142,0.988242194971,1
0.374342170656,0.954732718349,1
0.0320388029667,0.979290812011,1
0.500161456909,0.972694719589,1
0.00787213178365,0.838998337624,1
0.56593267855,0.625321509586,1
0.81569861073,0.559432344264,1
0.583927971649,0.883790916493,1
0.638396434346,0.988914782472,1
0.419374621258,0.52580014128,1
0.307793924501,0.76030037869,1
0.390943046059,0.666794150624,1
0.510679803502,0.608352088266,1
0.768964385799,0.682521269975,1
0.614452220341,0.807966097359,1
0.815505841346,0.58533424902,1
0.472352041818,0.96191615141,1
0.14377532904,0.523991622335,1
0.617357052853,0.636999690179,1
0.792419304533,0.70668906254,1
0.176199059567,0.649939809314,1
0.43796725957,0.970555560579,1
0.105895195945,0.6887549686,1
0.805315138194,0.742299467265,1
0.0196948445702,0.747525340328,1
0.348548885516,0.794049663354,1
0.464400882733,0.769330825416,1
0.203706155478,0.804745716067,1
0.181632818013,0.920925961295,1
0.456720013911,0.487684408004,1
0.945258584696,0.693165920007,1
0.0504911002254,0.951740256957,1
0.0427381810746,0.941966872705,1
0.662070752498,0.51435387193,1
0.194461987335,0.592959879517,1
0.192517881051,0.738860842011,1
0.218339160165,0.664806631701,1
0.130592785953,0.455357208159,1
0.359064364651,0.948175556045,1
0.0193619956337,0.834641226784,1
0.354366363425,0.723725591341,1
0.508429432481,0.551978498088,1
0.453044593961,0.909803889356,1
0.0724788800138,0.840168113781,1
0.977067218001,0.873023323749,1
0.63057796244,0.817101810517,1
0.319948399824,0.860503743059,1
0.331379127384,0.732525031688,1
0.269907632175,0.957273513645,1
0.380387406319,0.876804871771,1
0.314759702196,0.644682195542,1
0.574200063243,0.646896149757,1
0.238422086026,0.783988557539,1
0.551588469906,0.872598574926,1
0.564534577146,0.830978320791,1
0.302049127124,0.606797774379,1
0.336134162773,0.807468787694,1
0.286541947867,0.633331565636,1
0.369961729731,0.608787854481,1
0.545865852743,0.622356753192,1
0.841063208171,0.673182851072,1
0.899858938634,0.912932244326,1
0.755947799374,0.725584621162,1
0.834106552212,0.640851469678,1
0.124729662674,0.703823342099,1
0.752656581849,0.764157157285,1
0.647186860707,0.633620805643,1
0.362943868296,0.605026200796,1
0.103292776633,0.58080699793,1
0.260898922569,0.968443305491,1
0.984923325659,0.684658299141,1
0.450378648768,0.811855755578,1
0.0284422465444,0.560713114868,1
0.0763690781495,0.772591197026,1
0.314424907678,0.808655853473,1
0.158903594841,0.887434285241,1
0.933337354876,0.762975809097,1
0.327404162875,0.473349892525,1
0.606919392768,0.747469178504,1
0.527093786687,0.883523234645,1
0.925263075885,0.781961102725,1
0.0985367456137,0.616768161258,1
0.138027926515,0.669046482144,1
0.68781798718,0.508245001453,1
0.423939026192,0.697359594629,1
0.550876807003,0.781394817977,1
0.590821567007,0.616440434648,1
0.565777227266,0.967333102708,1
0.604280424554,0.791751559141,1
0.849665008542,0.906185466864,1
0.0951048853528,0.568819780681,1
0.531601216392,0.857023305818,1
0.738771119075,0.586155024758,1
0.550569687015,0.860541781068,1
0.431022852816,0.680051471443,1
0.627494789601,0.689721528396,1
0.851504715946,0.972663867621,1
0.277547963974,0.802752094272,1
0.601782362888,0.665255572934,1
0.198409807152,0.627032355112,1
0.767881687484,0.763426965985,1
0.257859630601,0.784546054906,1
0.576811205276,0.795843819201,1
0.829202450688,0.838491213046,1
0.0727397062648,0.857608736081,1
0.04647412646,0.62172667026,1
0.150255764887,0.510920438522,1
0.887991679999,0.84046248096,1
0.275277996173,0.772944685106,1
0.364664845245,0.515071261604,1
0.44406646255,0.521321531647,1
0.541132965137,0.730099656114,1
0.248217433404,0.710938163282,1
0.684184692056,0.977901822674,1
0.0617472737898,0.51365183151,1
0.651340910407,0.68386141319,1
0.516934489791,0.510544003309,1
0.203520800581,0.44945553157,1
0.254006308385,0.689848144046,1
0.388430711764,0.543679997746,1
0.354639775573,0.880921855226,1
0.482308780763,0.548168151618,1
0.372839169084,0.571047097181,1
0.860609884809,0.589617361083,1
0.7723289109,0.538750222519,1
0.604126989478,0.899295171285,1
0.402285748949,0.6093162818,1
0.627317383585,0.494769505398,1
0.308528132361,0.815610962037,1
0.195958700852,0.587652156046,1
0.880004190366,0.854407068206,1
0.0410964997288,0.790277165133,1
0.986189725259,0.743937830598,1
0.95682120779,0.926367896151,1
0.784764189869,0.591312828686,1
0.243777811065,0.468134261185,1
0.775337113187,0.716614076285,1
0.212122934325,0.99247569415,1
0.245450483654,0.742206063619,1
0.107702317132,0.814031465153,1
0.0881100698165,0.512022775975,1
0.870212350929,0.87121957306,1
0.0616445282205,0.65844859558,1
0.199503089243,0.464680598143,1
0.142215170062,0.719660806833,1
0.109990014344,0.434797602912,1
0.999324057078,0.807556260963,1
0.404492921569,0.476100851126,1
0.702917335693,0.755515264776,1
0.718203096906,0.651175001366,1
0.335413674159,0.470358700408,1
0.109913310785,0.475660042506,1
0.466272629159,0.753340882144,1
0.795692747944,0.597860653882,1
0.392012480235,0.987276164486,1
0.721535366879,0.604647434189,1
