0.7646947348750348,0.1792849156071299,0
0.759711868112317,0.35151869474264175,0
0.99759261135789,0.17953458487632723,0
0.9862591920594269,0.17356797011316571,0
0.6176552141557058,0.10156796194341877,0
0.8323989470362142,0.12737298743062664,0
0.8182786927200936,0.2528739352515236,0
0.6304113123190238,0.3139699300484917,0
0.7193238634714353,0.3782741372958377,0
0.9581073257899981,0.3659085272379642,0
0.7950492890756782,0.47779295709943137,0
0.5530663743937878,0.4440331527164578,0
0.6833135293192704,0.1402608450494217,0
0.84289092641194,0.12128043417119394,0
0.8207615336657361,0.1042792390620989,0
0.6909425902256395,0.024489699864350567,0
0.8107901036138809,0.295752525865721,0
0.8193352067732357,0.06954627923707613,0
0.9303063096584369,0.07601238244266528,0
0.9532563809494063,0.3652473943105434,0
0.5693532596593058,0.041057462019006286,0
0.6922177279600503,0.2769990181983564,0
0.9146358440759755,0.3982422661987193,0
0.9584005632895292,0.1231948654347842,0
0.8084048627145346,0.22635521825128813,0
0.9362820722716698,0.19118478346425827,0
0.5414925705704873,0.182980448069466,0
0.6515475688669334,0.22975134882869863,0
0.5869486089887289,0.052238735017840376,0
0.7593318990896916,0.3345408230397038,0
0.7100483918839696,0.06450405318239372,0
0.7180342783755725,0.46974196475330976,0
0.903038513133047,0.320003089144405,0
0.6383315341114782,0.08485984593431539,0
0.838687997318467,0.3668703488089412,0
0.7155148363828707,0.21876140864857763,0
0.5496677183784445,0.24334078123073644,0
0.9976916173167281,0.02157269404901052,0
0.9939671724326387,0.03471752196079081,0
0.7589120232669688,0.32979109143772734,0
0.6513433634063731,0.22648297329792444,0
0.6499712930107604,0.4227057873756037,0
0.6694287960616291,0.1802407293361058,0
0.6049171255548513,0.1015050101852667,0
0.798415151204455,0.38953133923966654,0
0.741218221378021,0.38324194903298703,0
0.9383689062749754,0.3543103726001796,0
0.8613079170550704,0.019695642876683905,0
0.8375860108822272,0.18696499223546392,0
0.6860303605923009,0.08430225509922828,0
0.9051518784728046,0.4600715494358675,0
0.6680212062414644,0.38938556610696895,0
0.9440235624027822,0.16987392806474588,0
0.6952479481799682,0.33134126917048656,0
0.8326896913511884,0.14090795956054813,0
0.5674448508704257,0.21544708852219607,0
0.7452964517082056,0.1083134590405761,0
0.7787727491004673,0.41561319837816646,0
0.8581329030854282,0.428796509437006,0
0.8744288802359153,0.035249284012356163,0
0.9733967828421816,0.3811052666886309,0
0.6363928365539991,0.35211425718312794,0
0.6390005033846875,0.2920772808380502,0
0.9593240711747492,0.4069326099852487,0
0.9260516989314344,0.47677719515827877,0
0.6601995027286711,0.14076905736857726,0
0.9104013357654845,0.005332054118295848,0
0.8374710278867997,0.993761671218174,1
0.9362831148511618,0.84483096932608,1
0.7000632431930185,0.7097700155799269,1
0.8440686786570331,0.835490315039114,1
0.9978590689463729,0.5245542245906906,1
0.6560875131500773,0.9708998085086548,1
0.5602746488155277,0.6064023492547501,1
0.6689638850117783,0.8061718140548961,1
0.6498148302634913,0.5649269455489276,1
0.609542083354263,0.7459085135191467,1
0.7405460781893429,0.5727134645364348,1
0.7928321993656735,0.8354822820525978,1
0.6253196550003713,0.8983417777855596,1
0.8708528335979859,0.6386675277033124,1
0.8811845928051123,0.5688779835296089,1
0.9041143478251643,0.871674074558793,1
0.8507624632740844,0.7515672586604393,1
0.9524367560958742,0.6423866884836459,1
0.9159696678476758,0.8270756934602105,1
0.4990183423633363,0.5431977264253861,1
0.575275936703357,0.8241850083331878,1
0.6893082593378229,0.8433816925097125,1
0.7415066237011507,0.6665966972566425,1
0.8600001707144566,0.4917156431240657,1
0.5027609385417224,0.8529485512321331,1
0.5640888455555942,0.4773441667305427,1
0.5785834737491287,0.8368225542619072,1
0.9820598816959708,0.7561626921362278,1
0.9142378494493065,0.8968609764973725,1
0.9480661263514575,0.6497460907548152,1
0.6749976065402,0.738056545634675,1
0.556004714152119,0.6865076291440347,1
0.5140956045933067,0.9327836900839528,1
0.8469934234145904,0.8246223587583581,1
0.7768338451223453,0.4980800466047045,1
0.9247409319545208,0.761604272258946,1
0.8730329154387249,0.6860878016138322,1
0.5028462958310879,0.7870084557770715,1
0.7618834831906725,0.816210956429621,1
0.7271374021069714,0.5071292145667301,1
0.967275243409721,0.5552159809540027,1
0.6682914848240122,0.6505446612289545,1
0.5335987626137612,0.9303431763103329,1
0.793516977287414,0.8768363458094589,1
0.7570591427167094,0.6048189617534476,1
0.5551282062904825,0.6127364453540269,1
0.7930948279820688,0.7714791796556167,1
0.6971801247997355,0.9335863826965848,1
0.5620905035500344,0.7788738374693268,1
0.9636274298517727,0.527880957312483,1
0.8321124425091698,0.8799712655987311,1
0.529092244677657,0.6695763148404112,1
0.9825836608309592,0.9991655035791694,1
0.6625376014949076,0.5984126619924898,1
0.9788757706374807,0.673437236214045,1
0.7400462119888004,0.8268924334763335,1
0.746857339888783,0.6028261100629358,1
0.9322424366057892,0.5200737426848157,1
0.5965858420863775,0.7206963413171431,1
0.8021954909115827,0.8463294561206449,1
0.5569161661967497,0.7981314448018303,1
0.778569730446449,0.555667977336837,1
0.888192587280452,0.7896469885105352,1
0.7739451145169047,0.8614836360903095,1
0.8092784313996758,0.6551747874470418,1
0.7289126720829846,0.684773239267664,1
0.8401673393261618,0.5161880247182035,1
0.7157629954647641,0.9334750789130655,1
0.5672278984125136,0.6780273694767024,1
0.5820067953255622,0.4915761067924517,1
0.5967249783680396,0.8959876102672494,1
0.7278091821315241,0.8367202044648119,1
0.5006306009508961,0.6908711731591625,1
0.5458681119922107,0.6066504093167592,1
0.7687698415165867,0.9520878803460946,1
0.8872149423129765,0.6545708043804107,1
0.3480853363118622,0.7439615942289376,2
0.3634970768440082,0.8642679947522208,2
0.3341757146545402,0.9798312463902379,2
0.2675353610154667,0.7571654298832998,2
0.16314456684268097,0.982854599508713,2
0.056593081277871105,0.828279874267877,2
0.005378121753237486,0.779681849644003,2
0.40714944332414615,0.5841169146126104,2
0.42129258676797643,0.877260252534808,2
0.46435316575899666,0.6499116640435995,2
0.3452617436338128,0.9053156689927162,2
0.4134136956216321,0.7464786743410743,2
0.3812104063905478,0.6966450553954234,2
0.2551629923588864,0.8295127948532105,2
0.21103825696007272,0.671042337441064,2
0.21750021345557669,0.5648568176192167,2
0.23731109936060701,0.9910843803785994,2
0.17585664533943368,0.6906804147756573,2
0.18502407812156163,0.6072482973794181,2
0.29231545362643596,0.9974224370652318,2
0.31592074862661457,0.5933814201992529,2
0.15334690635846537,0.9582677811227419,2
0.24399900083666592,0.5510531374873532,2
0.2436416639211546,0.8385735353200203,2
0.04420093839306671,0.6362500867972088,2
0.3127468196895308,0.5530620941135769,2
0.05585723138570542,0.9934494983535407,2
0.07881638863878415,0.6197954876959096,2
0.47140166196627775,0.8923272854817786,2
0.17603137529566226,0.5523680029487515,2
0.14751650207394396,0.882068160538927,2
0.11898017544019834,0.8752326479356312,2
0.21360176540347797,0.7713832565301526,2
0.062244892862125534,0.7415430597904082,2
0.14648396134247066,0.7387314208475025,2
0.37235185066170107,0.8246125746926772,2
0.22822679667432755,0.8327497432036176,2
0.3585718109553556,0.8667362208152491,2
0.11543911872084978,0.9942602666948475,2
0.2518778671753562,0.9977365065762739,2
0.2574318630753104,0.8162608912189722,2
0.3212261348622293,0.6080035383304445,2
0.19266032658753263,0.8064613536031129,2
0.34382390214895653,0.5409481322421699,2
0.13119922245247173,0.6266113261493284,2
0.06602214445421317,0.5692485377294538,2
0.3006841652662654,0.966596548372372,2
0.3742589253814217,0.8354144375985756,2
0.13503503944185002,0.6339826581587298,2
0.41130236547931176,0.6407792472485847,2
0.31133167535025874,0.744755133587409,2
0.14836229958620994,0.7893699949517955,2
0.3979133763122197,0.7577573223151708,2
0.003311698999966528,0.7314163979622289,2
0.05507957415987763,0.5970652629905251,2
0.4870362877521588,0.7803393453706315,2
0.06339581622890034,0.8707879084998432,2
0.12233038038607491,0.9789196663165027,2
0.08146827898149855,0.7275263227715194,2
0.07654536858556849,0.6418064944831547,2
0.30722151135460185,0.7637474376481299,2
0.11547448134590244,0.6989139612400936,2
0.3212700501364001,0.8884834529107919,2
0.3345446613758286,0.6049763852093758,2
0.08953697865650379,0.6340525531445129,2
0.15554076537139883,0.7969213843901367,2
0.2969409596659711,0.9225325619407124,2
0.06810756839518006,0.8321388218496748,2
0.2566054363907736,0.8675791188274344,2
0.49376337461321984,0.9361730572309324,2
0.22592628794731917,0.9825769353915939,2
0.28313167328613276,0.4868958785168853,3
0.18523901514542396,0.27716295215679654,3
0.4764124551439156,0.3747336505871981,3
0.3967110995097749,0.4697462941516821,3
0.31478654232105385,0.1295536527983855,3
0.4797417734326589,0.2971992546902178,3
0.14595060816186967,0.02887565107997947,3
0.09860030117670648,0.352206075596706,3
0.3568510004453742,0.04842390889109749,3
0.040224475571194684,0.21000566149988908,3
0.3697668919218302,0.08469199266571692,3
0.41282836768761455,0.5243230417386016,3
0.35168841274595775,0.5052838541067307,3
0.04241354631932359,0.35830869051124015,3
0.17354483258717956,0.07200144511743467,3
0.12518700354874102,0.25492098018846054,3
0.3283200249128545,0.44919372048997996,3
0.2628697791669323,0.22424701743061204,3
0.4632683445061182,0.2516787453400695,3
0.09247297615690775,0.046059415202777565,3
0.16907299844606005,0.009855168586910157,3
0.35256634968103895,0.18004921032728904,3
0.22171595971715152,0.40592985773411094,3
0.017891701043596497,0.06872360313678005,3
0.07425113749292978,0.08690820567452551,3
0.4447193186905519,0.13341809596305942,3
0.4149938495468999,0.26297993628549654,3
0.02824248095952897,0.44620823434989965,3
0.22512303174848436,0.5055746954736532,3
0.3090364951095036,0.12292164209576883,3
0.4373145582167127,0.16854665390688817,3
0.37898605348445613,0.07616955093876387,3
0.13581972840823409,0.433262439051332,3
0.2517890036861713,0.5173282428348442,3
0.3297926719185912,0.049915981326724035,3
0.21808702237692967,0.026742849425936077,3
0.27530421937868765,0.28205435366384723,3
0.16518175210631125,0.4144441837214361,3
0.469224487528087,0.34476756651977614,3
0.1971614798584711,0.020943128594256843,3
0.32560408574303157,0.2014432038424856,3
0.4649883223500556,0.3170975177966704,3
0.14223084534768005,0.5096733298205018,3
0.1073820343256261,0.3740520283156221,3
0.38058775207765616,0.16427951744610192,3
0.3900666052994377,0.4440664894132733,3
0.26434494376962814,0.26759062739500716,3
0.16745952999923008,0.21890914240127812,3
0.3749529762132545,0.039330891173789406,3
0.4525471198164498,0.5102174145292875,3
0.34789082979463104,0.3054057527269627,3
0.49788995019541293,0.3987907486243948,3
0.13396104131139597,0.11041922559091721,3
0.068258534043808,0.46775082852798744,3
0.22071201456693246,0.23330493190922974,3
0.028961698068896036,0.488178575935314,3
0.2874743039161528,0.3586055200821603,3
0.29393547026381706,0.18021961692237443,3
0.2414124178816155,0.3817281200135264,3
0.4790579493242504,0.13297194530839906,3
0.43197199484687987,0.19437133460382705,3
0.03045036619791419,0.17555555142565815,3
0.28181786404413556,0.10780541908278718,3
0.47155599800942105,0.43189614662277065,3
0.1939087143595669,0.44535466173111704,3
0.16642115716255612,0.2574163893278584,3
0.4377053909040248,0.3359638834373897,3
0.21637376479095605,0.31406833455040584,3
0.42649997835505415,0.05101707221861729,3
0.03275832379078181,0.4648487466675586,3
0.022307020933284516,0.011905287213281324,3
0.2545689227621303,0.4758751036957596,3
0.45714626551908033,0.3286535939498465,3
0.05426246736439844,0.3057902571529829,3
0.1652020253860188,0.3722994818574331,3
0.04104171141324198,0.3850116367832054,3
0.25774231619103716,0.13302248370447067,3
0.29218978179067057,0.08631845157144546,3
0.27919730487717465,0.4368899430297416,3
0.3065819822149608,0.5167907577291614,3
0.1368300632434032,0.16542203478872208,3
0.04798606911577541,0.17842824613982622,3
0.3060251316514231,0.48338612069936904,3
0.35478371780856965,0.09792607887280136,3
0.13028591761599762,0.02114466302563922,3
0.26346642043339186,0.37574343543674105,3
